...................
----------------------------------------------------------------------
Ran 19 tests in 0.015s

OK
Name             Stmts   Miss Branch BrPart  Cover   Missing
------------------------------------------------------------
Collatz.py          41      2     18      3    92%   50, 110, 49->50, 64->77, 109->110
TestCollatz.py      84      0      0      0   100%
------------------------------------------------------------
TOTAL              125      2     18      3    97%
